1====================    src/sorting.c    ====================
int xp , 
int temp  
int a , 
char flag  
int it  
int i  
int intArray  
int inner , 
int valueToInsert  
int interval  
int elements  
int i  
int arr  
int i  
int arr  
int piv ,temp,left,right ,right
int pivot_placed  
int arr  
int i , 
bool swapped  
int arr  
int i , 
int arr  
int i , 
int arr  
int i , 
int n1  
int n2  
int L  
int arr  
int m  
int arr  
int largest  
int l  
int r  
int arr  
int i  
int i  
int arr  
int i  
int array , 
int i , 
int range  
int count  
int array , 
int i , 
int argc ,char ,char
int arr  
int n  
int arr1  
int arr2  
int arr3  
int array  
int a  
int ages  
